Obter dados de arrecadacao para um estado — get_data_of_state • Ibamam
…
      tipo_multa
      Which dataset to search for. Can receive one of the values:
'arrecadadas' or 'distribuidas'

    Value

    A tibble

    Examples

Ibamam:::get_data_of_state("SP", "arrecadadas")

#> # A tibble: 52,379 x 18
#>    dataAuto  dataPagamento municipio       valorPago numAI     tipoInfracao     
#>    <chr>     <chr>         <chr>               <dbl> <chr>     <chr>            
#>  1 22/04/20… 29/01/2021    SAO JOSE DO RI…      358. "AC6FODN… Fauna            
#>  2 31/12/20… 10/06/2020    PEDRA BELA          1074. "BN4GBUA… Outras           
#>  3 19/02/20… 28/01/2021    JALES                822. "FR87POR… Pesca            
#>  4 20/12/20… 10/02/2021    CAMPINAS             872. "HKS2AXU… Cadastro Técnico…
#>  5 12/05/20… 15/07/2020    CAMPINAS             708. "H6ULF5Y… Outras           
#>  6 17/12/20… 04/03/2021    SAO PAULO           1088. "IAFZ97H… Outras           
#>  7 22/10/20… 03/12/2020    GUARULHOS            354. "JZGIJM5… Outras           
#>  8 09/12/20… 29/01/2021    VARGEM GRANDE …     6516. "NMBOW7M… Controle ambient…
#>  9 17/05/20… 22/04/2021    CAMPINAS             934. "OLBZNK4… Outras           
#> 10 06/03/20… 08/03/2021    IACANGA             3244. "O2ITI04… Controle ambient…
#> # … with 52,369 more rows, and 12 more variables:
#> #   ultimaAtualizacaoRelatorio <chr>, parcela <int>, quantidadeParcela <int>,
#> #   uf <chr>, tipoAuto <chr>, moeda <chr>, statusDebito <chr>,
#> #   enquadramentoLegal <chr>, nomeRazaoSocial <chr>, cpfCnpj <chr>,
#> #   valorbaseParcela <dbl>, valorAuto <dbl>
…
