Obter dados de multas distribuidas para um estado — obter_multas_distribuidas_estado • Ibamam
…
    Arguments

      uf
      Abreviation of the name of the state (two letters in lower case)

    Value

    A tibble

    Examples

Ibamam:::obter_multas_distribuidas_estado("SP")

#> # A tibble: 34,555 x 13
#>    dataAuto  municipio  numAI tipoInfracao ultimaAtualizac… uf    situacaoDebito
#>    <chr>     <chr>      <chr> <chr>        <chr>            <chr> <chr>         
#>  1 22/04/20… SAO JOSE … "AC6… Fauna        16/05/2021 19:21 SP    Quitado. Baix…
#>  2 17/10/20… MARILIA    "ADX… Fauna        16/05/2021 19:21 SP    Cancelado     
#>  3 27/01/20… SAO JOSE … "AEG… Fauna        16/05/2021 19:21 SP    Para homologa…
#>  4 05/12/20… SAO BERNA… "AEI… Controle am… 16/05/2021 19:21 SP    Para homologa…
#>  5 13/08/20… CAMPINAS   "AG7… Outras       16/05/2021 19:21 SP    Cancelado     
#>  6 16/05/20… CAMPINAS   "AK2… Outras       16/05/2021 19:21 SP    Cancelado     
#>  7 08/07/20… PAULINIA   "ALR… Controle am… 16/05/2021 19:21 SP    Para homologa…
#>  8 05/11/20… CAMPINAS   "ALV… Controle am… 16/05/2021 19:21 SP    Para homologa…
#>  9 13/04/20… ILHABELA   "AL2… Pesca        16/05/2021 19:21 SP    Para homologa…
#> 10 19/02/20… COTIA      "ASK… Cadastro Té… 16/05/2021 19:21 SP    Para homologa…
#> # … with 34,545 more rows, and 6 more variables: tipoAuto <chr>, moeda <chr>,
#> #   enquadramentoLegal <chr>, nomeRazaoSocial <chr>, cpfCnpj <chr>,
#> #   valorAuto <dbl>
…
